<?xml version="1.0" encoding="utf-8"?>
<!-- Generator: Adobe Illustrator 15.0.0, SVG Export Plug-In . SVG Version: 6.00 Build 0)  -->
<!DOCTYPE svg PUBLIC "-//W3C//DTD SVG 1.1//EN" "http://www.w3.org/Graphics/SVG/1.1/DTD/svg11.dtd">
<svg version="1.1" id="Layer_1" xmlns="http://www.w3.org/2000/svg" xmlns:xlink="http://www.w3.org/1999/xlink" x="0px" y="0px"
	 width="270px" height="266px" viewBox="36.5 187.505 270 266" enable-background="new 36.5 187.505 270 266" xml:space="preserve">
<g>
	<path fill="#FFFFFF" d="M373.677,378.839v-128h87.227v25.806h-57.29v27.871h47.482v24.258h-47.482v50.58L373.677,378.839
		L373.677,378.839z"/>
	<path fill="#FFFFFF" d="M513.549,380.903c-8.259,0-15.483-1.549-21.678-4.129c-6.193-2.581-11.871-6.192-16-10.839
		s-7.742-9.807-9.807-15.484c-2.064-6.193-3.098-12.387-3.098-18.58c0-6.709,1.032-12.902,3.098-18.58
		c2.063-6.193,5.678-11.354,9.807-15.483c4.129-4.646,9.807-8.259,16-10.839c6.193-2.581,13.419-4.129,21.678-4.129
		c8.258,0,15.483,1.548,21.677,4.129c6.194,2.58,11.355,6.193,16,10.839c4.646,4.646,7.742,9.808,9.808,15.483
		c2.063,6.193,3.613,12.387,3.613,18.58c0,6.711-1.032,12.903-3.098,18.58c-2.064,6.194-5.678,11.355-9.807,15.484
		c-4.129,4.646-9.808,8.258-16,10.839C528.516,379.354,521.29,380.903,513.549,380.903z M492.387,331.354
		c0,7.228,2.064,13.42,6.194,18.063c4.129,4.646,9.29,6.711,14.968,6.711c3.098,0,5.677-0.517,8.258-2.064
		c2.58-1.031,4.646-3.098,6.709-5.161c2.065-2.063,3.099-4.646,4.646-7.741c1.032-3.098,1.549-6.193,1.549-9.808
		c0-7.226-2.064-13.419-6.193-18.063c-4.13-4.646-8.773-6.709-14.968-6.709c-3.098,0-5.678,0.516-8.259,1.547
		c-2.58,1.033-4.645,3.098-6.709,5.162c-2.065,2.063-3.097,4.646-4.646,7.742C492.903,324.646,492.387,327.742,492.387,331.354z"/>
	<path fill="#FFFFFF" d="M570.322,361.807l48.517-57.291h-45.936v-20.646h76.387v17.549l-48,57.291h49.549v20.129h-80
		L570.322,361.807L570.322,361.807z"/>
	<path fill="#FFFFFF" d="M665.29,273.033v-26.324h28.903v26.324H665.29z M665.29,378.839v-94.969h28.903v94.969H665.29z"/>
	<path fill="#FFFFFF" d="M713.807,247.226h28.903v98.064c0,7.226,3.097,10.838,9.29,10.838c1.549,0,3.097,0,4.646-0.516
		c1.548-0.517,3.097-1.031,4.645-2.064l3.613,21.678c-3.613,1.549-7.742,3.098-12.389,4.129c-4.645,1.032-9.29,1.549-13.419,1.549
		c-8.258,0-14.968-2.064-19.097-6.71c-4.646-4.129-6.71-10.839-6.71-18.579V247.226H713.807z"/>
	<path fill="#FFFFFF" d="M813.419,378.839v-128h54.71c6.193,0,11.871,1.031,17.032,3.613c5.161,2.58,9.29,5.676,13.42,9.805
		c3.612,4.129,6.709,8.775,8.772,13.937c2.065,5.162,3.098,10.323,3.098,15.483c0,5.679-1.031,10.84-3.098,16.517
		c-2.063,5.161-4.645,9.808-8.258,13.937c-3.611,4.129-7.742,7.226-12.902,9.807c-5.161,2.581-10.84,3.613-17.032,3.613h-25.808
		v41.289H813.419L813.419,378.839z M843.354,311.742h24.26c3.611,0,6.709-1.549,9.29-4.646c2.579-3.096,3.611-7.225,3.611-13.418
		c0-3.098-0.516-5.678-1.032-7.742c-1.031-2.064-2.063-4.129-3.097-5.161c-1.548-1.549-2.58-2.581-4.645-3.097
		c-1.55-0.516-3.613-1.032-5.162-1.032h-23.226V311.742L843.354,311.742z"/>
	<path fill="#FFFFFF" d="M949.678,380.903c-4.646,0-9.291-0.517-12.902-2.063c-4.129-1.549-7.742-3.613-10.323-6.193
		c-3.097-2.581-5.161-5.678-6.709-9.807c-1.549-3.613-2.581-7.742-2.581-11.871c0-4.646,1.032-8.774,3.097-12.903
		c2.064-3.612,4.646-7.226,8.258-9.808c3.613-2.58,7.742-5.16,12.904-6.709c5.161-1.549,10.322-2.58,16.517-2.58
		c4.129,0,7.741,0.516,11.354,1.031c3.613,0.517,7.226,1.549,9.807,3.098v-4.129c0-10.84-6.192-16.516-19.097-16.516
		c-5.161,0-10.322,1.031-14.968,2.58c-4.646,1.549-9.808,4.129-14.969,7.742l-8.258-18.064c6.193-4.129,12.903-7.227,19.613-9.291
		c6.709-2.063,13.936-3.096,21.677-3.096c14.452,0,25.29,3.612,33.032,10.321c7.742,6.71,11.871,16.517,11.871,29.419v24.258
		c0,3.098,0.516,5.161,1.549,6.193c1.032,1.033,2.58,2.064,4.645,2.064v24.258c-2.579,0.517-4.645,1.033-6.709,1.033
		s-4.13,0.516-5.678,0.516c-5.678,0-9.291-1.032-12.388-3.098c-2.58-2.063-4.646-5.16-5.161-8.773l-0.516-4.129
		c-4.129,5.678-9.291,9.807-14.969,12.388C962.58,379.354,956.387,380.903,949.678,380.903z M958.451,359.742
		c3.098,0,6.193-0.517,9.291-1.549c3.097-1.031,5.161-2.58,7.226-4.129c2.581-2.064,4.129-4.646,4.129-6.71v-9.29
		c-2.581-1.031-5.161-1.548-8.258-2.064c-3.097-0.516-5.678-1.031-8.259-1.031c-5.161,0-9.806,1.031-12.902,3.613
		c-3.612,2.58-5.162,5.676-5.162,9.289s1.55,6.193,4.13,8.774C950.71,358.71,954.322,359.742,958.451,359.742z"/>
	<path fill="#FFFFFF" d="M1089.032,308.646c-7.227,0-13.419,1.031-19.098,3.611c-5.678,2.064-9.807,5.162-12.387,9.808v56.774
		h-28.903v-94.969h26.84v19.098c3.097-6.193,7.226-11.355,12.387-14.969s10.322-5.676,16.516-5.676c1.549,0,2.064,0,3.098,0
		s1.031,0,2.064,0L1089.032,308.646L1089.032,308.646z"/>
	<path fill="#FFFFFF" d="M1162.839,373.677c-4.129,1.549-8.774,3.098-13.42,4.646c-5.161,1.549-10.322,2.063-15.483,2.063
		c-3.612,0-7.226-0.516-10.321-1.547c-3.099-1.032-6.194-2.582-8.26-4.129c-2.579-2.064-4.129-4.646-5.677-7.742
		c-1.549-3.098-2.063-7.227-2.063-11.871v-49.549h-11.871v-21.676h11.871v-29.937h28.901v29.937h19.099v21.676h-19.099v39.742
		c0,3.098,1.033,5.162,2.581,6.711c1.549,1.549,3.613,2.063,6.193,2.063c2.063,0,4.646-0.517,6.71-1.032
		c2.063-0.516,4.129-1.549,6.193-2.58L1162.839,373.677z"/>
	<path fill="#FFFFFF" d="M1265.549,378.839h-28.904v-53.162c0-6.193-1.03-10.838-3.611-13.42c-2.581-2.58-5.679-4.129-9.29-4.129
		c-2.064,0-4.13,0.518-6.193,1.033c-2.063,1.031-4.13,2.063-6.194,3.612c-2.063,1.548-3.611,3.097-5.16,5.161
		s-2.58,4.129-3.613,6.71v54.192h-28.902v-94.967h25.807v16c3.612-5.679,8.259-9.808,14.968-12.904
		c6.192-3.096,13.936-4.645,22.192-4.645c6.194,0,10.84,1.032,14.97,3.098c3.611,2.063,6.709,5.16,8.772,8.773
		c2.064,3.613,3.613,7.227,4.129,11.871c0.518,4.129,1.032,8.258,1.032,12.387L1265.549,378.839L1265.549,378.839z"/>
	<path fill="#FFFFFF" d="M1330.064,380.903c-7.742,0-14.969-1.549-21.679-4.129c-6.192-2.581-11.871-6.192-16-10.323
		c-4.645-4.645-7.741-9.806-9.806-15.482c-2.065-5.678-3.613-11.871-3.613-18.581s1.032-13.419,3.613-19.612
		c2.063-6.193,5.677-11.355,9.806-16c4.129-4.646,9.808-8.258,16-10.839c6.194-2.581,13.42-4.129,21.679-4.129
		c8.258,0,15.483,1.548,21.678,4.129c6.193,2.581,11.354,6.192,16,10.839c4.129,4.645,7.742,9.807,9.807,15.482
		c2.064,5.679,3.098,11.871,3.098,18.582c0,1.548,0,3.097,0,5.16c0,1.549-0.518,3.098-0.518,4.129h-70.193
		c0.517,6.193,2.582,11.354,6.711,14.453c4.129,3.096,8.773,5.16,14.45,5.16c4.13,0,8.26-1.031,12.389-3.097s6.709-4.646,7.74-8.259
		l24.774,6.71c-3.613,7.226-9.29,13.419-17.549,18.063C1350.193,378.322,1340.903,380.903,1330.064,380.903z M1350.193,322.582
		c-0.517-6.195-2.58-10.84-6.709-14.453c-3.613-3.612-8.26-5.16-13.937-5.16c-5.678,0-10.323,1.548-13.936,5.16
		c-3.613,3.613-5.679,8.258-6.193,13.937L1350.193,322.582L1350.193,322.582z"/>
	<path fill="#FFFFFF" d="M1453.936,308.646c-7.226,0-13.42,1.031-19.097,3.611c-5.678,2.064-9.807,5.162-12.388,9.808v56.774
		h-28.902v-94.969h26.838v19.098c3.099-6.193,7.228-11.355,12.389-14.969c5.16-3.613,10.321-5.676,16.516-5.676
		c1.549,0,2.064,0,3.097,0c0.518,0,1.033,0,2.064,0v26.322H1453.936z"/>
	<path fill="#FFFFFF" d="M1503.483,380.903c-8.259,0-16-1.549-23.741-4.129c-7.742-2.581-14.452-6.192-20.129-11.354l10.322-17.549
		c5.678,4.129,11.354,7.227,17.031,9.291c5.678,2.063,10.839,3.096,16,3.096c3.612,0,6.71-0.516,8.774-2.063
		c2.063-1.548,3.097-3.097,3.097-5.678c0-2.58-1.549-4.646-4.129-6.192c-2.581-1.549-7.226-3.098-13.42-4.646
		c-6.193-1.549-11.87-3.612-16-5.161c-4.645-1.548-7.741-3.612-10.839-5.677c-3.097-2.064-4.646-4.646-6.193-7.227
		c-1.032-2.58-1.548-5.678-1.548-9.291c0-4.645,1.032-9.289,3.098-13.418c2.064-4.13,4.645-7.227,7.741-10.324
		c3.612-2.58,7.227-5.16,11.87-6.709c4.646-1.547,9.807-2.58,14.968-2.58c7.228,0,13.937,1.031,20.13,3.096
		s12.388,5.162,18.063,10.322l-11.354,17.549c-5.678-3.612-10.321-6.193-14.45-8.258c-4.13-1.549-8.26-2.582-12.389-2.582
		c-3.097,0-5.678,0.517-7.741,2.064c-2.064,1.032-3.098,3.098-3.098,6.193c0,2.58,1.032,4.646,3.613,6.193
		c2.581,1.549,6.71,2.58,12.903,4.129c6.71,2.064,12.387,3.613,17.031,5.678c4.646,1.549,8.259,3.613,11.354,6.193
		c3.098,2.064,5.162,4.646,6.193,7.742c1.549,3.098,2.064,6.193,2.064,10.322c0,9.29-3.613,17.031-10.323,22.193
		C1525.161,377.807,1515.354,380.903,1503.483,380.903z"/>
</g>
<g>
	<path fill="#FFFFFF" d="M257.032,444.904H89.291c-22.194,0-40.258-18.064-40.258-40.26V237.419
		c0-22.194,18.064-40.258,40.258-40.258h167.742c22.193,0,40.258,18.063,40.258,40.258v167.742
		C296.774,426.839,278.709,444.904,257.032,444.904z"/>
	<g>
		<polygon fill="#2DA9E1" points="174.452,355.613 174.452,325.162 147.613,325.162 147.613,284.386 174.452,284.386 
			174.452,253.936 113.032,253.936 113.032,404.128 147.613,404.128 147.613,355.613 		"/>
		<path fill="#2DA9E1" d="M227.097,340.128c4.129-4.646,7.226-10.321,9.807-16c2.581-6.192,3.613-12.387,3.613-19.096
			c0-6.193-1.032-12.388-3.613-18.582c-2.581-6.193-5.678-11.355-10.323-16c-4.129-4.645-9.29-8.773-15.484-11.355
			c-5.677-2.58-11.871-4.129-18.581-4.129v30.969c0.516,0,1.548,0.516,2.064,0.516c2.064,1.032,3.613,2.064,5.162,3.613
			c1.548,1.548,2.581,3.613,3.613,6.193c1.032,2.58,1.548,5.678,1.548,9.291c0,6.709-1.548,11.871-4.646,15.484
			c-2.581,2.58-5.161,4.645-8.258,5.16v30.452c7.226,0,13.419-1.55,19.613-4.13C217.807,348.386,222.968,344.774,227.097,340.128z"
			/>
	</g>
</g>
</svg>
